20

4
A
B
C
D
1 2 4 3
4 2 3 1
3 4 2 1
2 3 4 1
4 2 1 3
1 4 2 3
3 2 4 1

6
Gabriella Austin
Kiara Schneider
Luna Salinas
Nathan Mercado
Gloria Hartman
Ashton Friedman
2 6 3 1 4 5
4 2 1 3 6 5
5 3 6 2 1 4

13
Maliha Oneill
Khalid Ortega
Carmen Horne
Arman Colon
Ophelia Morrison
Ibrahim Huber
Elissa Meza
Brooke Shepherd
Aliza Rosario
Donald Mckee
Beth Casey
Rosalind Santos
Sonny Bowen
2 13 9 7 5 1 12 4 6 8 3 10 11
10 4 11 2 7 6 8 13 12 9 1 3 5
3 8 5 6 11 10 1 13 4 7 12 9 2
10 5 6 2 12 3 9 11 1 7 8 4 13
7 5 10 2 8 12 9 13 11 3 4 6 1
2 11 1 12 8 6 3 5 7 13 10 9 4
5 10 7 3 9 8 1 13 4 11 6 12 2
2 10 8 11 7 12 3 4 9 6 1 5 13

4
Shauna Mason
Dominic Smith
Casey Mahoney
Alexandre Underwood
3 1 2 4
2 3 4 1
1 4 2 3
2 1 3 4
4 2 1 3
1 4 2 3
2 3 1 4

8
Zainab Pierce
Issac Marsh
Tobias Donnelly
Bessie Lane
Rhiannon Gould
Pablo Stanton
Herbie Riddle
Aayan Nielsen
3 6 7 2 5 1 8 4
5 8 4 1 2 7 6 3
4 8 5 6 7 3 2 1
2 6 3 7 1 8 5 4
7 1 8 2 5 6 4 3
7 5 4 2 3 1 6 8
6 3 1 2 5 8 7 4

12
Gerald Harvey
Ida Hickman
Nataniel Moses
Larissa Lawrence
Katy Marshall
Kamran Brandt
Janice Frye
Aliya Schneider
Damian Ho
Vanessa Reese
Izaak Francis
Caitlyn Giles
11 6 5 1 2 9 10 8 3 4 7 12
1 6 11 10 9 7 8 3 4 5 2 12
4 11 6 8 3 10 2 12 1 7 9 5
6 5 11 7 8 2 3 12 4 1 9 10
9 12 1 4 3 11 8 6 2 5 7 10
1 9 6 2 3 4 10 12 11 8 5 7
6 8 1 9 10 12 4 11 5 2 7 3
7 8 10 1 11 5 6 2 12 3 4 9
7 8 1 4 6 10 2 12 9 11 5 3
8 5 3 2 10 11 1 7 6 9 4 12
5 7 8 4 3 10 1 6 2 9 12 11
4 11 3 12 9 8 2 7 5 6 10 1

6
Olive Mclean
Haris Mcgowan
Myles Huffman
Malik Velasquez
Kacper Harrison
Maya Fulton
2 3 6 4 5 1
6 2 5 1 3 4
6 4 1 2 5 3
4 1 6 2 5 3
5 4 3 2 1 6
3 5 4 1 6 2
4 1 3 5 2 6
2 6 1 3 4 5
6 5 3 4 2 1

4
Stephen Shah
Jakob Drake
Idris Ali
Hazel English
2 4 3 1
3 2 1 4
3 2 1 4
1 3 4 2

2
Tillie Norton
Jonathan Dotson
2 1
1 2
1 2
2 1
2 1
2 1
1 2
1 2

7
Mina Ayers
Maisy Jefferson
Lyra Wang
Owen Camacho
Frank Wise
Emily Warner
Rhea Guerrero
4 3 2 5 6 7 1
3 1 4 7 2 5 6
5 6 7 2 4 3 1
4 2 1 6 3 5 7
3 5 6 2 4 1 7
6 3 2 4 1 5 7

9
Emmy Hernandez
Mehmet Knapp
Adelaide Morris
Tammy Roach
Kacie Koch
Wesley Stephenson
Kamal Mahoney
Mathew Andrews
Raphael Davila
4 2 7 8 6 5 1 3 9
5 2 4 1 6 3 7 8 9
7 3 8 4 5 9 6 2 1
7 3 1 9 2 5 6 8 4

3
Joan Melton
Lilly Jacobs
Holly Walters
2 3 1
3 2 1
1 3 2
1 2 3
1 2 3

11
Safiya Stuart
Tim Castillo
Alexandria Schroeder
Jeffrey Allison
Trinity Bloggs
Arabella Pope
Sufyaan Hubbard
Christina Walton
Phoenix Powell
Angelica Edwards
Myla Welsh
4 3 11 5 1 2 9 6 8 10 7
2 5 4 11 10 3 7 8 6 1 9
11 3 10 2 4 8 1 9 7 5 6
7 8 9 3 11 5 4 6 10 2 1

5
Anas Sears
Alessandro Benjamin
Ryan Castillo
Rupert Mcneil
Isaiah Wolf
1 2 3 4 5
4 3 5 1 2
2 4 3 1 5
1 3 5 4 2
1 5 4 3 2
1 4 3 2 5
3 4 5 1 2

2
Mohamed Hudson
Aadam Lozano
1 2
2 1
2 1
2 1

3
Aiza Mccullough
Eoin Riggs
Maison Bartlett
2 3 1
1 3 2
2 1 3
2 1 3
1 3 2
3 2 1

9
Jemima Moody
Aaliyah Jenkins
Jaxon Cochran
Leena Carrillo
Kenny Vance
Clarence Joyce
Emmy Gamble
Rhys Cotton
Tyrone Christian
3 5 1 4 2 7 8 9 6
6 5 9 8 2 3 7 4 1
2 8 7 1 5 3 9 4 6
6 3 9 5 7 1 4 8 2
6 4 7 2 1 8 3 9 5
3 8 1 6 5 4 7 9 2

3
Dora Singleton
Saffron Price
Aliza Rosales
1 3 2
1 3 2
3 2 1
3 2 1
3 2 1
3 1 2
2 3 1

4
Alissa Andrade
Rio Schmidt
Leo Oconnell
Bridget Nicholson
2 1 3 4
4 2 3 1
2 3 4 1
1 4 3 2
2 1 4 3

5
Awais Evans
Yasin Gordon
Magnus Anthony
Neve Booth
Krish Avila
4 2 3 1 5
1 2 3 4 5
1 5 2 3 4
2 3 1 5 4
5 2 4 3 1
5 2 3 1 4
4 1 2 5 3
4 2 3 5 1
2 4 1 3 5
3 2 4 5 1
1 3 5 2 4
